{
  "project_info": {
    "project_number": "288834528087",
    "project_id": "giuaky-fd19b",
    "storage_bucket": "giuaky-fd19b.appspot.com"
  },
  "client": [
    {
      "client_info": {
        "mobilesdk_app_id": "1:288834528087:android:809fb44ab871784f33d412",
        "android_client_info": {
          "package_name": "com.example.giuaky"
        }
      },
      "oauth_client": [
        {
          "client_id": "288834528087-v68gecvbl2hd08vkvfkfhirm27r1fepl.apps.googleusercontent.com",
          "client_type": 1,
          "android_info": {
            "package_name": "com.example.giuaky",
            "certificate_hash": "b4ccfc5ff1c6a56fcd62294be09bb23b40bd1dbb"
          }
        },
        {
          "client_id": "288834528087-n2ca5ipgu6itm2lg7opqamhta3v12foh.apps.googleusercontent.com",
          "client_type": 3
        }
      ],
      "api_key": [
        {
          "current_key": "AIzaSyCVGLzv7dEU779jsM89Y_Bvu1LUnH9U5i0"
        }
      ],
      "services": {
        "appinvite_service": {
          "other_platform_oauth_client": [
            {
              "client_id": "288834528087-n2ca5ipgu6itm2lg7opqamhta3v12foh.apps.googleusercontent.com",
              "client_type": 3
            }
          ]
        }
      }
    }
  ],
  "configuration_version": "1"
}